{
    "name":"PresideCMS Extension: Twitter API",
    "shortDescription":"Configure multiple Twitter accounts in Preside; interact with the API, including storing and serving tweets locally",
    "type":"preside-extensions",
    "version":"VERSION_NUMBER",
    "location":"https://bitbucket.org/REPO_FULL_NAME/downloads/ZIP_FILE",
    "author":"Seb Duggan",
    "directory":"application/extensions",
    "homepage":"https://bitbucket.org/REPO_FULL_NAME",
    "documentation":"https://bitbucket.org/REPO_FULL_NAME",
    "repository":{
        "type":"git",
        "URL":"https://bitbucket.org/REPO_FULL_NAME"
    },
    "bugs":"https://bitbucket.org/REPO_FULL_NAME/issues",
    "slug":"preside-ext-twitter-api",
    "projectURL":"",
    "ignore":[
        ".git/*",
        ".gitignore",
        ".travis.yml",
        ".twgit_features_subject",
        "*.sh"
    ],
    "devDependencies":{
        "testbox":"^3.1.0+339"
    },
    "installPaths":{
        "testbox":"tests/testbox/"
    }
}
