{
    "name":"twitterApiTests",
    "openbrowser":false,
    "trayEnable":false,
    "web":{
        "webroot":"tests//"
    },
    "JVM":{
        "heapSize":"1024",
        "minHeapSize":"512"
    }
}
